TM Lab 1: Tidy Text, Tokens, & Sentiment
…
Now lets remove stop words like the and a that dont help us learn much about what people are tweeting about the state standards.

tidy_tweets <-
  tweet_tokens %>%
  anti_join(stop_words, by = "word")

Notice that weve specified the by = argument to look for matching words in the word column for both data sets and remove any rows from the tweet_tokens dataset that match the stop_words dataset. Remember when we first tokenized our dataset I conveniently choseoutput = wordas the column name because it matches the column namewordin thestop_wordsdataset contained in the tidytext package. This makes our call toanti_join()simpler becauseanti_join()knows to look for the column namedwordin each dataset. However this wasnt really necessary since word is the only matching column name in both datasets and it would have matched those columns by default.

Custom Stop Words

Before wrapping up, lets take a quick count of the most common words in tidy_tweets data frame:

count(tidy_tweets, word, sort = T)

## # A tibble: 7,524 x 2
##    word          n
##    <chr>     <int>
##  1 common     1089
##  2 core       1083
##  3 math        434
##  4 students    140
##  5 #ngss       131
##  6 school      127
##  7 teachers    122
##  8 amp         120
##  9 kids        111
## 10 standards   111
## #  with 7,514 more rows

Notice that the nonsense word amp is in our top tens words. If we use the filter() function and `grep() query from Unit 1 on our tweets data frame, we can see that amp seems to be some sort of html residue that we might want to get rid of.

filter(tweets, grepl('amp', text))

## # A tibble: 124 x 4
##    standards screen_name   created_at          text                             
##    <chr>     <chr>         <dttm>              <chr>                            
##  1 ngss      TdiShelton    2021-02-27 14:17:34 "I am so honored and appreciativ
##  2 ngss      STEMTeachToo 2021-02-27 16:25:04 "Open, non-hierarchical communic
##  3 ngss      NGSSphenomena 2021-02-25 13:24:22 "Bacteria have music preferences
##  4 ngss      CTSKeeley     2021-02-21 21:50:04 "Today I was thinking about the 
##  5 ngss      richbacolor   2021-02-24 14:14:49 "Last chance to register for @MS
##  6 ngss      MrsEatonELL   2021-02-27 06:24:09 "Were we doing the hand jive? No
##  7 ngss      STEMuClaytion 2021-02-24 14:56:19 "#WonderWednesday w/ questions t
##  8 ngss      LearningUNDF 2021-02-24 18:13:01 "Are candies like M&amp;Ms and S
##  9 ngss      abeslo        2021-02-26 18:54:31 "#M'Kenna, whose story we share 
## 10 ngss      E3Chemistry   2021-02-25 14:15:20 "Molarity &amp; Parts Per Millio
## #  with 114 more rows
…
AFINN assigns words with a score that runs between -5 and 5, with negative scores indicating negative sentiment and positive scores indicating positive sentiment.

bing categorizes words in a binary fashion into positive and negative categories.

nrccategorizes words in a binary fashion (yes/no) into categories of positive, negative, anger, anticipation, disgust, fear, joy, sadness, surprise, and trust.

Note that if this is your first time using the AFINN and NRC lexicons, youll be prompted to download both Respond yes to the prompt by entering 1 and the NRC and AFINN lexicons will download. Youll only have to do this the first time you use the NRC lexicon.

Lets take a quick look at each of these lexicons using the get_sentiments() function and assign them to their respective names for later use:

afinn <- get_sentiments("afinn")

afinn

## # A tibble: 2,477 x 2
##    word       value
##    <chr>      <dbl>
##  1 abandon       -2
##  2 abandoned     -2
##  3 abandons      -2
##  4 abducted      -2
##  5 abduction     -2
##  6 abductions    -2
##  7 abhor         -3
##  8 abhorred      -3
##  9 abhorrent     -3
## 10 abhors        -3
## #  with 2,467 more rows

bing <- get_sentiments("bing")

bing

## # A tibble: 6,786 x 2
##    word        sentiment
##    <chr>       <chr>    
##  1 2-faces     negative 
##  2 abnormal    negative 
##  3 abolish     negative 
##  4 abominable  negative 
##  5 abominably  negative 
##  6 abominate   negative 
##  7 abomination negative 
##  8 abort       negative 
##  9 aborted     negative 
## 10 aborts      negative 
## #  with 6,776 more rows

nrc <- get_sentiments("nrc")

nrc

## # A tibble: 13,901 x 2
##    word        sentiment
##    <chr>       <chr>    
##  1 abacus      trust    
##  2 abandon     fear     
##  3 abandon     negative 
##  4 abandon     sadness  
##  5 abandoned   anger    
##  6 abandoned   fear     
##  7 abandoned   negative 
##  8 abandoned   sadness  
##  9 abandonment anger    
## 10 abandonment fear     
## #  with 13,891 more rows

And just out of curiosity, lets take a look at the loughran lexicon as well:

loughran <- get_sentiments("loughran")

loughran

## # A tibble: 4,150 x 2
##    word         sentiment
##    <chr>        <chr>    
##  1 abandon      negative 
##  2 abandoned    negative 
##  3 abandoning   negative 
##  4 abandonment  negative 
##  5 abandonments negative 
##  6 abandons     negative 
##  7 abdicated    negative 
##  8 abdicates    negative 
##  9 abdicating   negative 
## 10 abdication   negative 
## #  with 4,140 more rows
…
Why should we be cautious when using and interpreting them?

Join Sentiments

Weve reached the final step in our data wrangling process before we can begin exploring our data to address our questions.

In the previous section, we usedanti_join()to remove stop words in our dataset. For sentiment analysis, were going use the inner_join() function to do something similar. However, instead of removing rows that contain words matching those in our stop words dictionary, inner_join() allows us to keep only the rows with words that match words in our sentiment lexicons, or dictionaries, along with the sentiment measure for that word from the sentiment lexicon.

Lets use inner_join() to combine our two tidy_tweets and afinn data frames, keeping only rows with matching data in the word column:

sentiment_afinn <- inner_join(tidy_tweets, afinn, by = "word")

sentiment_afinn

## # A tibble: 1,520 x 5
##    standards screen_name  created_at          word         value
##    <chr>     <chr>        <dttm>              <chr>        <dbl>
##  1 ngss      loyr2662     2021-02-27 17:33:27 win              4
##  2 ngss      Furlow_teach 2021-02-27 17:03:23 love             3
##  3 ngss      Furlow_teach 2021-02-27 17:03:23 sweet            2
##  4 ngss      Furlow_teach 2021-02-27 17:03:23 significance     1
##  5 ngss      TdiShelton   2021-02-27 14:17:34 honored          2
##  6 ngss      TdiShelton   2021-02-27 14:17:34 opportunity      2
##  7 ngss      TdiShelton   2021-02-27 14:17:34 wonderful        4
##  8 ngss      TdiShelton   2021-02-27 14:17:34 powerful         2
##  9 ngss      TdiShelton   2021-02-27 15:49:17 loved            3
## 10 ngss      TdiShelton   2021-02-27 16:51:32 share            1
## #  with 1,510 more rows

Notice that each word in your sentiment_afinn data frame now contains a value ranging from -5 (very negative) to 5 (very positive).

sentiment_bing <- inner_join(tidy_tweets, bing, by = "word")

sentiment_bing

## # A tibble: 1,637 x 5
##    standards screen_name  created_at          word         sentiment
##    <chr>     <chr>        <dttm>              <chr>        <chr>    
##  1 ngss      loyr2662     2021-02-27 17:33:27 win          positive 
##  2 ngss      Furlow_teach 2021-02-27 17:03:23 love         positive 
##  3 ngss      Furlow_teach 2021-02-27 17:03:23 helped       positive 
##  4 ngss      Furlow_teach 2021-02-27 17:03:23 sweet        positive 
##  5 ngss      Furlow_teach 2021-02-27 17:03:23 tough        positive 
##  6 ngss      TdiShelton   2021-02-27 14:17:34 honored      positive 
##  7 ngss      TdiShelton   2021-02-27 14:17:34 appreciative positive 
##  8 ngss      TdiShelton   2021-02-27 14:17:34 wonderful    positive 
##  9 ngss      TdiShelton   2021-02-27 14:17:34 powerful     positive 
## 10 ngss      TdiShelton   2021-02-27 15:49:17 loved        positive 
## #  with 1,627 more rows
…
Again, CCSS is overall negative while NGSS is overall positive!

 Comprehension Check

For your final task for this walkthough, calculate a single sentiment score for NGSS and CCSS using the remaining nrc and loughan lexicons and answer the following questions. Are these findings above still consistent?

Hint: The nrc lexicon contains positive and negative values just like bing and loughan, but also includes values like trust and sadness as shown below. You will need to use the filter() function to select rows that only contain positive and negative.

nrc

## # A tibble: 13,901 x 2
##    word        sentiment
##    <chr>       <chr>    
##  1 abacus      trust    
##  2 abandon     fear     
##  3 abandon     negative 
##  4 abandon     sadness  
##  5 abandoned   anger    
##  6 abandoned   fear     
##  7 abandoned   negative 
##  8 abandoned   sadness  
##  9 abandonment anger    
## 10 abandonment fear     
## #  with 13,891 more rows
…
ccss_text <-
  ccss_tweets %>%
  filter(lang == "en") %>%
  select(status_id, text) %>%
  mutate(standards = "ccss") %>%
  relocate(standards)

tweets <- bind_rows(ngss_text, ccss_text)

tweets

## # A tibble: 1,441 x 3
##    standards status_id        text                                              
##    <chr>     <chr>            <chr>                                             
##  1 ngss      136571669033664 "Switching gears for a bit for the \"Crosscutting
##  2 ngss      136321751376141 "Was just introduced to the Engineering Habits of
##  3 ngss      136570912276365 "@IBchemmilam @chemmastercorey Im familiar w/ it
##  4 ngss      136567329436042 "@IBchemmilam @chemmastercorey How well does this
##  5 ngss      136566739318860 "I am so honored and appreciative to have an oppo
##  6 ngss      136569047726628 "Thank you @brian_womack I loved connecting with 
##  7 ngss      136570614049613 "Please share #NGSSchat PLN! https://t.co/Qc2c3eW
##  8 ngss      136366932814767 "So excited about this weekends learning... plea
##  9 ngss      136544278654421 "The Educators Evaluating the Quality of Instruct
## 10 ngss      136435814916417 "Foster existing teacher social networks that exh
## #  with 1,431 more rows
…
Note that the closest lexicon we have available in our tidytext package to the SentiStrength lexicon used by Rosenberg is the AFINN lexicon which also uses a -5 to 5 point scale.

So lets use unnest_tokens to tidy our tweets, remove stop words, and add afinn scores to each word similar to what we did in section 2c. Add Sentiment Values:

sentiment_afinn <- tweets %>%
  unnest_tokens(output = word, 
                input = text, 
                token = "tweets")  %>% 
  anti_join(stop_words, by = "word") %>%
  filter(!word == "amp") %>%
  inner_join(afinn, by = "word")

sentiment_afinn

## # A tibble: 1,520 x 4
##    standards status_id           word         value
##    <chr>     <chr>               <chr>        <dbl>
##  1 ngss      1365716690336645124 win              4
##  2 ngss      1365709122763653133 love             3
##  3 ngss      1365709122763653133 sweet            2
##  4 ngss      1365709122763653133 significance     1
##  5 ngss      1365667393188601857 honored          2
##  6 ngss      1365667393188601857 opportunity      2
##  7 ngss      1365667393188601857 wonderful        4
##  8 ngss      1365667393188601857 powerful         2
##  9 ngss      1365690477266284545 loved            3
## 10 ngss      1365706140496130050 share            1
## #  with 1,510 more rows

Next, I want to calculate a single score for each tweet. To do that, Ill use the by now familiar group_by and summarize

afinn_score <- sentiment_afinn %>% 
  group_by(standards, status_id) %>% 
  summarise(value = sum(value))

afinn_score

## # A tibble: 842 x 3
## # Groups:   standards [2]
##    standards status_id           value
##    <chr>     <chr>               <dbl>
##  1 ccss      1362894990813188096    -2
##  2 ccss      1362899370199445508     4
##  3 ccss      1362906588021989376    -2
##  4 ccss      1362910494487535618    -9
##  5 ccss      1362910913855160320    -3
##  6 ccss      1362928225379250179     2
##  7 ccss      1362933982074073090    -1
##  8 ccss      1362947497258151945    -3
##  9 ccss      1362949805694013446     3
## 10 ccss      1362970614282264583     3
## #  with 832 more rows

And like Rosenberg et al., Ill add a flag for whether the tweet is positive or negative using the mutate function to create a new sentiment column to indicate whether that tweets was positive or negative.

To do this, we introduced the new if_else function from the dplyr package. This if_else function adds negative to the sentiment column if the score in the value column of the corresponding row is less than 0. If not, it will add a positive to the row.

afinn_sentiment <- afinn_score %>%
  filter(value != 0) %>%
  mutate(sentiment = if_else(value < 0, "negative", "positive"))

afinn_sentiment

## # A tibble: 801 x 4
## # Groups:   standards [2]
##    standards status_id           value sentiment
##    <chr>     <chr>               <dbl> <chr>    
##  1 ccss      1362894990813188096    -2 negative 
##  2 ccss      1362899370199445508     4 positive 
##  3 ccss      1362906588021989376    -2 negative 
##  4 ccss      1362910494487535618    -9 negative 
##  5 ccss      1362910913855160320    -3 negative 
##  6 ccss      1362928225379250179     2 positive 
##  7 ccss      1362933982074073090    -1 negative 
##  8 ccss      1362947497258151945    -3 negative 
##  9 ccss      1362949805694013446     3 positive 
## 10 ccss      1362970614282264583     3 positive 
## #  with 791 more rows
…
