ENA and Virtual Internship Conversations
…
ℹ Use `spec()` to retrieve the full column specification for this data.
ℹ Specify the column types or set `show_col_types = FALSE` to quiet this message.

👉 Your Turn ⤵

Use the code chunk below to inspect the data frame you just imported using a function of your choosing and answer the questions that follow:

# YOUR CODE HERE
rescushell_data

# A tibble: 3,824 × 21
    ...1 UserName    Condition CONFIDENCE.Pre CONFIDENCE.Post CONFIDENCE.Change
   <dbl> <chr>       <chr>              <dbl>           <dbl>             <dbl>
 1     1 steven z    FirstGame              7               8                 1
 2     2 akash v     FirstGame              6               8                 2
 3     3 alexander b FirstGame              5               7                 1
 4     4 brandon l   FirstGame              5               6                 1
 5     5 brandon l   FirstGame              5               6                 1
 6     6 christian x FirstGame              4               4                 0
 7     7 christian x FirstGame              4               4                 0
 8     8 brandon l   FirstGame              5               6                 1
 9     9 brandon l   FirstGame              5               6                 1
10    10 steven z    FirstGame              7               8                 1
# ℹ 3,814 more rows
# ℹ 15 more variables: C.Level.Pre <chr>, NewC.Change <chr>, C.Change <chr>,
#   Timestamp <chr>, ActivityNumber <dbl>, GroupName <chr>, GameHalf <chr>,
#   GameDay <dbl>, text <chr>, Data <dbl>, Technical.Constraints <dbl>,
#   Performance.Parameters <dbl>, Client.and.Consultant.Requests <dbl>,
#   Design.Reasoning <dbl>, Collaboration <dbl>
…
Important

Learner Conditions. The Condition column has two unique values: FirstGame, and SecondGame, representing novice users and relative expert users, respectively, as some students participated in RescuShell after having already completed a different engineering virtual internship.

The UserName column includes unique user names for all students (n=48). This way of defining the units means that ENA will construct a network for each student in each condition.

unitCols <- c("Condition", "UserName")

To verify that the units are correctly specified, lets subset and preview the unique values in the units columns. To do that, we’ll pipe |> the data frame rescushell_data, select only the columns whose names are stored in the character vector unitCols using all_of(), which ensures those names are treated literally and throws an error if any are missing, and then use the distinct() function to drop any duplicate rows across those selected columns.

rescushell_data |>
  select(all_of(unitCols)) |>
  distinct()

# A tibble: 48 × 2
   Condition UserName   
   <chr>     <chr>      
 1 FirstGame steven z   
 2 FirstGame akash v    
 3 FirstGame alexander b
 4 FirstGame brandon l  
 5 FirstGame christian x
 6 FirstGame jordan l   
 7 FirstGame arden f    
 8 FirstGame margaret n 
 9 FirstGame connor f   
10 FirstGame jimmy i    
# ℹ 38 more rows
…
ENA represent codes as nodes in the networks and co-occurrences of codes as edges. Most researchers use binary coding in ENA analyses, where the values in the code columns are either 0 (indicating that the code is not present in that line) or 1 (indicating that the code is present in that line). rescushell_data contains six code columns, all of which will be used here.

To specify the code columns, enter the code column names in a vector.

codeCols <- c('Data', 'Technical.Constraints', 'Performance.Parameters', 'Client.and.Consultant.Requests', 'Design.Reasoning', 'Collaboration')

👉 Your Turn ⤵

Use the code chunk below to verify that the codes are correctly specified, by using the select() and all_of() functions again.

#YOUR CODE HERE
rescushell_data |>
  select(all_of(codeCols))

# A tibble: 3,824 × 6
    Data Technical.Constraints Performance.Parameters Client.and.Consultant.Re…¹
   <dbl>                 <dbl>                  <dbl>                      <dbl>
 1     0                     0                      0                          0
 2     0                     0                      0                          0
 3     0                     0                      0                          0
 4     0                     0                      0                          0
 5     0                     0                      0                          0
 6     0                     0                      0                          0
 7     0                     0                      0                          0
 8     0                     0                      0                          0
 9     0                     0                      0                          0
10     0                     0                      0                          0
# ℹ 3,814 more rows
# ℹ abbreviated name: ¹​Client.and.Consultant.Requests
# ℹ 2 more variables: Design.Reasoning <dbl>, Collaboration <dbl>
…
The conversation parameter determines which lines in the data can be connected. Codes in lines that are not in the same conversation cannot be connected. For example, you may want to model connections within different time segments, such as days, or different steps in a process, such as activities.

For this case study, we’ll choose the Condition, GroupName, and ActivityNumber columns to define the “conversations.” These choices indicate that connections can only happen between students who were in the same condition (FirstGame or SecondGame) and on the same project team (group), and within the same activity. This definition of conversation reflects what actually happened in the simulation: in a given condition, students only interacted with those who were in the same group, and each activity occurred on a different day.

👉 Your Turn ⤵

Similar to how we specified units and codes above, use the code chunk below to create a character vector that specifies the conversation parameter using the Condition, GroupName, and ActivityNumber columns, and then verify that the conversations are correctly specified by subset and preview the unique values in the conversation columns.

conversationCols <- c("Condition", "GroupName", "ActivityNumber")

rescushell_data |>
  select(all_of(conversationCols))

# A tibble: 3,824 × 3
   Condition GroupName ActivityNumber
   <chr>     <chr>              <dbl>
 1 FirstGame Electric               1
 2 FirstGame Electric               1
 3 FirstGame Electric               1
 4 FirstGame Electric               1
 5 FirstGame Electric               1
 6 FirstGame Electric               1
 7 FirstGame Electric               1
 8 FirstGame Electric               1
 9 FirstGame Electric               1
10 FirstGame Electric               1
# ℹ 3,814 more rows
…
