Twitter Sentiment Towards State Standards
…
Data for this case study includes all tweets from January through May of 2020 and includes the following terms: #ccss, common core, #ngsschat, ngss. Since we’ll be working with some computational intensive functions later in this case study that can take some time to run, I restricted the time frame for my search to only a handful of month. Even so, we’ll be working with nearly 30,000 tweets and nearly 1,000,000 words for our analysis!

Let’s use the by now familiar read_csv() function to import our ccss_tweets.csv file saved in our data folder:

ccss_tweets <- read_csv("data/ccss-tweets.csv", 
          col_types = cols(author_id = col_character(), 
                           id = col_character(),
                           conversation_id = col_character(), 
                           in_reply_to_user_id = col_character()
                           )
          )

ccss_tweets

# A tibble: 27,230 × 8
   text               created_at          author_id id    conversation_id source
   <chr>              <dttm>              <chr>     <chr> <chr>           <chr> 
 1 "@catturd2 Hmmmm … 2021-01-02 00:49:28 16098543… 1345… 13451697062071… Twitt…
 2 "@homebrew1500 I … 2021-01-02 00:40:05 12495948… 1345… 13451533915976… Twitt…
 3 "@ClayTravis Dump… 2021-01-02 00:32:46 88770705… 1345… 13450258639942… Twitt…
 4 "@KarenGunby @chi… 2021-01-02 00:24:01 12495948… 1345… 13451533915976… Twitt…
 5 "@keith3048 I kno… 2021-01-02 00:23:42 12527475… 1345… 13451533915976… Twitt…
 6 "Probably common … 2021-01-02 00:18:38 12760173… 1345… 13451625486818… Twitt…
 7 "@LisaS4680 Stupi… 2021-01-02 00:16:11 92213292… 1345… 13451595466087… Twitt…
 8 "@JerryGl29176259… 2021-01-02 00:10:29 12201608… 1345… 13447179758914… Twitt…
 9 "@JBatNC304 @Cawt… 2021-01-02 00:09:15 88091448… 1345… 13447403608625… Twitt…
10 "@chiefaugur I th… 2021-01-01 23:54:38 12495948… 1345… 13451533915976… Twitt…
# ℹ 27,220 more rows
# ℹ 2 more variables: possibly_sensitive <lgl>, in_reply_to_user_id <chr>
…
👉 Your Turn ⤵

Complete the following code chunk to import the NGSS tweets located in the same data folder as our common core tweets and named ngss-tweets.csv. By default, R will treat numerical IDs in our dataset as numeric values but we will need to convert these to characters like demonstrated above for the purpose of analysis. Also, feel free to repurpose the code from above.

ngss_tweets <- read_csv("data/ngss-tweets.csv", 
          col_types = cols(author_id = col_character(), 
                           id = col_character(),
                           conversation_id = col_character(), 
                           in_reply_to_user_id = col_character()
                           )
          )

ngss_tweets

# A tibble: 8,125 × 8
   text               created_at          author_id id    conversation_id source
   <chr>              <dttm>              <chr>     <chr> <chr>           <chr> 
 1 "Please help us R… 2021-01-06 00:50:49 32799077… 1346… 13466201998945… Twitt…
 2 "What lab materia… 2021-01-06 00:45:32 10103246… 1346… 13466188701325… Hoots…
 3 "I recently saw a… 2021-01-06 00:39:37 61829645  1346… 13466173820858… Twitt…
 4 "I'm thrilled to … 2021-01-06 00:30:13 461653415 1346… 13466150172071… Twitt…
 5 "PLS RT. Excited … 2021-01-06 00:15:05 22293234  1346… 13466112069671… Twitt…
 6 "Inspired by Marg… 2021-01-06 00:00:00 33179602… 1346… 13466074140999… Tweet…
 7 "PLTW Launch is d… 2021-01-05 23:45:06 17276863  1346… 13466036638386… Hoots…
 8 "@NGSS_tweeps How… 2021-01-05 23:24:01 10230543… 1346… 13464677409499… Twitt…
 9 "@NGSS_tweeps I d… 2021-01-05 23:21:56 10230543… 1346… 13464677409499… Twitt…
10 "January 31st is … 2021-01-05 23:10:03 23679615  1346… 13465948440435… Hoots…
# ℹ 8,115 more rows
# ℹ 2 more variables: possibly_sensitive <lgl>, in_reply_to_user_id <chr>
…
conversation_id for examining sentiment by conversations

id for the unique reference id for each tweet and useful for counts

ccss_tweets_2 <- ccss_tweets_1 |> 
  select(text,
         author_id,
         created_at, 
         conversation_id,
         id)

ccss_tweets_2

# A tibble: 27,122 × 5
   text                      author_id created_at          conversation_id id   
   <chr>                     <chr>     <dttm>              <chr>           <chr>
 1 "@catturd2 Hmmmm “common… 16098543… 2021-01-02 00:49:28 13451697062071… 1345…
 2 "@homebrew1500 I agree. … 12495948… 2021-01-02 00:40:05 13451533915976… 1345…
 3 "@ClayTravis Dump revisi… 88770705… 2021-01-02 00:32:46 13450258639942… 1345…
 4 "@KarenGunby @chiefaugur… 12495948… 2021-01-02 00:24:01 13451533915976… 1345…
 5 "@keith3048 I know I am … 12527475… 2021-01-02 00:23:42 13451533915976… 1345…
 6 "Probably common core ed… 12760173… 2021-01-02 00:18:38 13451625486818… 1345…
 7 "@LisaS4680 Stupid is as… 92213292… 2021-01-02 00:16:11 13451595466087… 1345…
 8 "@JerryGl29176259 @3Year… 12201608… 2021-01-02 00:10:29 13447179758914… 1345…
 9 "@JBatNC304 @Cawthornfor… 88091448… 2021-01-02 00:09:15 13447403608625… 1345…
10 "@chiefaugur I think the… 12495948… 2021-01-01 23:54:38 13451533915976… 1345…
# ℹ 27,112 more rows
…
Note: The select() function will also reorder your columns based on the order in which you list them.

Use the code chunk below to reorder the columns to your liking and assign to ccss_tweets_3:

ccss_tweets_3 <- ccss_tweets_2 |> 
  select(id,
         text,
         author_id,
         created_at, 
         conversation_id)

ccss_tweets_3

# A tibble: 27,122 × 5
   id                  text        author_id created_at          conversation_id
   <chr>               <chr>       <chr>     <dttm>              <chr>          
 1 1345170311105404928 "@catturd2… 16098543… 2021-01-02 00:49:28 13451697062071…
 2 1345167946855964674 "@homebrew… 12495948… 2021-01-02 00:40:05 13451533915976…
 3 1345166106013519873 "@ClayTrav… 88770705… 2021-01-02 00:32:46 13450258639942…
 4 1345163904670969857 "@KarenGun… 12495948… 2021-01-02 00:24:01 13451533915976…
 5 1345163823221792769 "@keith304… 12527475… 2021-01-02 00:23:42 13451533915976…
 6 1345162548681863168 "Probably … 12760173… 2021-01-02 00:18:38 13451625486818…
 7 1345161934551863296 "@LisaS468… 92213292… 2021-01-02 00:16:11 13451595466087…
 8 1345160500666109954 "@JerryGl2… 12201608… 2021-01-02 00:10:29 13447179758914…
 9 1345160188542726144 "@JBatNC30… 88091448… 2021-01-02 00:09:15 13447403608625…
10 1345156508842151936 "@chiefaug… 12495948… 2021-01-01 23:54:38 13451533915976…
# ℹ 27,112 more rows
…
Merge Data Frames

Finally, let’s combine our CCSS and NGSS tweets into a single data frame by using the base R union() function and simply supplying the data frames that you want to combine as arguments:

ss_tweets <- union(ccss_tweets_clean,
                   ngss_tweets_clean)

ss_tweets

# A tibble: 35,233 × 6
   standards text            author_id created_at          conversation_id id   
   <chr>     <chr>           <chr>     <dttm>              <chr>           <chr>
 1 ccss      "@catturd2 Hmm… 16098543… 2021-01-02 00:49:28 13451697062071… 1345…
 2 ccss      "@homebrew1500… 12495948… 2021-01-02 00:40:05 13451533915976… 1345…
 3 ccss      "@ClayTravis D… 88770705… 2021-01-02 00:32:46 13450258639942… 1345…
 4 ccss      "@KarenGunby @… 12495948… 2021-01-02 00:24:01 13451533915976… 1345…
 5 ccss      "@keith3048 I … 12527475… 2021-01-02 00:23:42 13451533915976… 1345…
 6 ccss      "Probably comm… 12760173… 2021-01-02 00:18:38 13451625486818… 1345…
 7 ccss      "@LisaS4680 St… 92213292… 2021-01-02 00:16:11 13451595466087… 1345…
 8 ccss      "@JerryGl29176… 12201608… 2021-01-02 00:10:29 13447179758914… 1345…
 9 ccss      "@JBatNC304 @C… 88091448… 2021-01-02 00:09:15 13447403608625… 1345…
10 ccss      "@chiefaugur I… 12495948… 2021-01-01 23:54:38 13451533915976… 1345…
# ℹ 35,223 more rows

Note that when creating a “union” like this (i.e. stacking one data frame on top of another), you should have the same number of columns in each data frame and they should be in the exact same order.

Alternatively, we could have used the bind_rows() function from {dplyr} as well:

ss_tweets <- bind_rows(ccss_tweets_clean,
                       ngss_tweets_clean)

ss_tweets

# A tibble: 35,233 × 6
   standards text            author_id created_at          conversation_id id   
   <chr>     <chr>           <chr>     <dttm>              <chr>           <chr>
 1 ccss      "@catturd2 Hmm… 16098543… 2021-01-02 00:49:28 13451697062071… 1345…
 2 ccss      "@homebrew1500… 12495948… 2021-01-02 00:40:05 13451533915976… 1345…
 3 ccss      "@ClayTravis D… 88770705… 2021-01-02 00:32:46 13450258639942… 1345…
 4 ccss      "@KarenGunby @… 12495948… 2021-01-02 00:24:01 13451533915976… 1345…
 5 ccss      "@keith3048 I … 12527475… 2021-01-02 00:23:42 13451533915976… 1345…
 6 ccss      "Probably comm… 12760173… 2021-01-02 00:18:38 13451625486818… 1345…
 7 ccss      "@LisaS4680 St… 92213292… 2021-01-02 00:16:11 13451595466087… 1345…
 8 ccss      "@JerryGl29176… 12201608… 2021-01-02 00:10:29 13447179758914… 1345…
 9 ccss      "@JBatNC304 @C… 88091448… 2021-01-02 00:09:15 13447403608625… 1345…
10 ccss      "@chiefaugur I… 12495948… 2021-01-01 23:54:38 13451533915976… 1345…
# ℹ 35,223 more rows
…
Now let’s remove stop words like “the” and “a” that don’t help us learn much about what people are tweeting about the state standards.

tidy_tweets <- tweet_tokens |>
  anti_join(stop_words, by = "word")

Notice that we’ve specified the by = argument to look for matching words in the word column for both data sets and remove any rows from the tweet_tokens dataset that match the stop_words dataset. Remember when we first tokenized our dataset I conveniently chose output = word as the column name because it matches the column name word in the stop_words dataset contained in the tidytext package. This makes our call to anti_join()simpler because anti_join() knows to look for the column named word in each dataset. However this wasn’t really necessary since word is the only matching column name in both datasets and it would have matched those columns by default.

Custom Stop Words

Before wrapping up, let’s take a quick count of the most common words in tidy_tweets data frame:

count(tidy_tweets, word, sort = T)

# A tibble: 66,166 × 2
   word         n
   <chr>    <int>
 1 common   27199
 2 core     26992
 3 t.co     15389
 4 https    15377
 5 math     12208
 6 ngss      4290
 7 ngsschat  3284
 8 amp       3084
 9 science   2905
10 students  2577
# ℹ 66,156 more rows

Notice that the nonsense words like “t.co”, “https”, and “amp” occur in our top tens words. If we use the filter() function and `grep() query from Module 1 on our tweets data frame, we can see that “amp” seems to be some sort of html residue that we might want to get rid of.

filter(ss_tweets, grepl('amp', text))

# A tibble: 2,946 × 6
   standards text            author_id created_at          conversation_id id   
   <chr>     <chr>           <chr>     <dttm>              <chr>           <chr>
 1 ccss      "@ClayTravis D… 88770705… 2021-01-02 00:32:46 13450258639942… 1345…
 2 ccss      "\"It is enoug… 10711184… 2021-01-01 18:51:12 13450801483669… 1345…
 3 ccss      "@MajorPatriot… 431198790 2021-01-01 18:48:10 13450744882082… 1345…
 4 ccss      "@richardgibb8… 29683893… 2021-01-01 13:14:51 13443288010529… 1344…
 5 ccss      "@SenSasse htt… 33095093… 2021-01-01 03:37:16 13243372501555… 1344…
 6 ccss      "@UrlNat @tina… 13447903… 2021-01-01 03:22:43 13443596144484… 1344…
 7 ccss      "@prayingmedic… 12675423… 2021-01-01 00:26:30 13447016115331… 1344…
 8 ccss      "@KatieDavisco… 12593931… 2021-01-04 06:26:59 13358036497342… 1345…
 9 ccss      "@UtahCoronavi… 30138567… 2021-01-04 06:15:19 13459706841204… 1345…
10 ccss      "@NowakRo #Bui… 20661221  2021-01-04 02:10:28 13459143442534… 1345…
# ℹ 2,936 more rows
…
Note that we could simplify and extend this filter to weed out any additional words that don’t carry much meaning but may skew our data by being so prominent, including numerical values “1” through “9.”

Run the following code to create a vector of words to remove and the by using the c() combine function and the str_detect() function from the dplyr package to remove

tidy_tweets <- tweet_tokens |>
  anti_join(stop_words, by = "word") |>
  filter(!word %in% c("amp", "https", "t.co", as.character(1:100))
         ) # Exclude any words "in" that vector including characters 1-9

Now let’s run our counts again and confirm they were removed:

count(tidy_tweets, word, sort = T)

# A tibble: 66,064 × 2
   word          n
   <chr>     <int>
 1 common    27199
 2 core      26992
 3 math      12208
 4 ngss       4290
 5 ngsschat   3284
 6 science    2905
 7 students   2577
 8 education  2493
 9 standards  2332
10 school     2212
# ℹ 66,054 more rows
…
👉 Your Turn ⤵

We’ve created some unnecessarily lengthy code to demonstrate some of the steps in the tidying process.

Complete the following code to rewrite the tokenization and removal of stop words processes into a more compact series of commands and save your data frame as tidy_tweets.

tidy_tweets <- ss_tweets |>
  unnest_tokens(output = word, 
                input = text) |>
  anti_join(stop_words, by = "word") |>
  filter(!word %in% c("amp", "https", "t.co", as.character(1:100)))

tidy_tweets

# A tibble: 455,388 × 6
   standards author_id           created_at          conversation_id id    word 
   <chr>     <chr>               <dttm>              <chr>           <chr> <chr>
 1 ccss      1609854356          2021-01-02 00:49:28 13451697062071… 1345… catt…
 2 ccss      1609854356          2021-01-02 00:49:28 13451697062071… 1345… hmmmm
 3 ccss      1609854356          2021-01-02 00:49:28 13451697062071… 1345… comm…
 4 ccss      1609854356          2021-01-02 00:49:28 13451697062071… 1345… core 
 5 ccss      1609854356          2021-01-02 00:49:28 13451697062071… 1345… math 
 6 ccss      1609854356          2021-01-02 00:49:28 13451697062071… 1345… makes
 7 ccss      1609854356          2021-01-02 00:49:28 13451697062071… 1345… sense
 8 ccss      1249594897113513985 2021-01-02 00:40:05 13451533915976… 1345… home…
 9 ccss      1249594897113513985 2021-01-02 00:40:05 13451533915976… 1345… agree
10 ccss      1249594897113513985 2021-01-02 00:40:05 13451533915976… 1345… gran…
# ℹ 455,378 more rows
…
bing categorizes words in a binary fashion into positive and negative categories.

nrc categorizes words in a binary fashion (“yes”/“no”) into categories of positive, negative, anger, anticipation, disgust, fear, joy, sadness, surprise, and trust.

Important

Note that if this is your first time using the AFINN and NRC lexicons, you’ll be prompted to download both. Respond “yes” to the prompt in the Console by entering “1” and the NRC and AFINN lexicons will download. You’ll only have to do this the first time you use the NRC lexicon.

Let’s take a quick look at each of these lexicons using the get_sentiments() function and assign them to their respective names for later use:

afinn <- get_sentiments("afinn")

afinn

# A tibble: 2,477 × 2
   word       value
   <chr>      <dbl>
 1 abandon       -2
 2 abandoned     -2
 3 abandons      -2
 4 abducted      -2
 5 abduction     -2
 6 abductions    -2
 7 abhor         -3
 8 abhorred      -3
 9 abhorrent     -3
10 abhors        -3
# ℹ 2,467 more rows

bing <- get_sentiments("bing")

bing

# A tibble: 6,786 × 2
   word        sentiment
   <chr>       <chr>    
 1 2-faces     negative 
 2 abnormal    negative 
 3 abolish     negative 
 4 abominable  negative 
 5 abominably  negative 
 6 abominate   negative 
 7 abomination negative 
 8 abort       negative 
 9 aborted     negative 
10 aborts      negative 
# ℹ 6,776 more rows

nrc <- get_sentiments("nrc")

nrc

# A tibble: 13,872 × 2
   word        sentiment
   <chr>       <chr>    
 1 abacus      trust    
 2 abandon     fear     
 3 abandon     negative 
 4 abandon     sadness  
 5 abandoned   anger    
 6 abandoned   fear     
 7 abandoned   negative 
 8 abandoned   sadness  
 9 abandonment anger    
10 abandonment fear     
# ℹ 13,862 more rows

And just out of curiosity, let’s take a look at the loughran lexicon, which categorizes words with an emphasis on financial and economic contexts, labeling words as positive, negative, uncertainty, litigious, etc.:

loughran <- get_sentiments("loughran")

loughran

# A tibble: 4,150 × 2
   word         sentiment
   <chr>        <chr>    
 1 abandon      negative 
 2 abandoned    negative 
 3 abandoning   negative 
 4 abandonment  negative 
 5 abandonments negative 
 6 abandons     negative 
 7 abdicated    negative 
 8 abdicates    negative 
 9 abdicating   negative 
10 abdication   negative 
# ℹ 4,140 more rows
…
Join Sentiments

We’ve reached the final step in our data wrangling process before we can begin exploring our data to address our questions.

In the previous section, we used anti_join() to remove stop words in our dataset. For sentiment analysis, we’re going use the inner_join() function to do something similar. However, instead of removing rows that contain words matching those in our stop words dictionary, inner_join() allows us to keep only the rows with words that match words in our sentiment lexicons, or dictionaries, along with the sentiment measure for that word from the sentiment lexicon.

Let’s use inner_join() to combine our two tidy_tweets and afinn data frames, keeping only rows with matching data in the word column:

sentiment_afinn <- inner_join(tidy_tweets, afinn, by = "word")

sentiment_afinn |> 
  select(word, value)

# A tibble: 34,596 × 2
   word     value
   <chr>    <dbl>
 1 agree        1
 2 crap        -3
 3 dump        -1
 4 complain    -2
 5 crap        -3
 6 shit        -4
 7 matter       1
 8 stupid      -2
 9 stupid      -2
10 lmao         4
# ℹ 34,586 more rows
…
ccss_text <-
  ccss_tweets |>
  select(id, text) |>
  mutate(standards = "ccss") |>
  relocate(standards)

tweets <- bind_rows(ngss_text, ccss_text)

tweets

# A tibble: 35,355 × 3
   standards id                  text                                           
   <chr>     <chr>               <chr>                                          
 1 ngss      1346620199894564865 "Please help us RT and consider donating to he…
 2 ngss      1346618870132572160 "What lab materials can you find in MOST middl…
 3 ngss      1346617382085812227 "I recently saw a post about a college profess…
 4 ngss      1346615017207173124 "I'm thrilled to be a part of this project beh…
 5 ngss      1346611206967189512 "PLS RT. Excited 2 honor &amp; build on the le…
 6 ngss      1346607414099935232 "Inspired by Margaret's legacy, NGS Navigators…
 7 ngss      1346603663838633984 "PLTW Launch is designed to meet your science …
 8 ngss      1346598356760584192 "@NGSS_tweeps However, the SEP I was not prepa…
 9 ngss      1346597832246108171 "@NGSS_tweeps I definitely think \"planning an…
10 ngss      1346594844043583491 "January 31st is the FINAL registration deadli…
# ℹ 35,345 more rows
…
