Lab 1: Text Mining Basics - Tidy Text & Word Counts
…
As highlighted in Word Counts are Amazing, one simple but powerful approach to text analysis is counting the frequency in which words occur in a given collection of documents, or corpus.

Now that we have our original survey data in a tidy text format, we can use the count() function from the dplyr package to find the most common words used by teachers when asked, “What was the most beneficial/valuable aspect of this online resource?”

opd_counts <- count(opd_clean, word, sort = TRUE)

# alternatively, we could have use the %>% operator to yield the same result.

opd_counts <- opd_clean %>% 
  count(word, sort = TRUE)

opd_counts

# A tibble: 5,352 × 2
   word              n
   <chr>         <int>
 1 information    1885
 2 learning       1520
 3 videos         1385
 4 resources      1286
 5 online         1139
 6 examples       1105
 7 understanding  1092
 8 time           1082
 9 students       1013
10 data            971
# ℹ 5,342 more rows
…
One common approach to facilitate comparison across documents or groups of text, in our case responses by Online Resource type, is by looking at the frequency that each word occurs among all words for that document group. This also helps to better gauge how prominent the same word is across different groups.

For example, let’s create counts for each Resource and word paring, and then create a new column using the mutate() function that calculations the proportion that word makes up among all words.

To do this a little more efficiently, I’m going to use the %>% operator:

opd_frequencies <- opd_clean %>%
  count(Resource, word, sort = TRUE) %>%
  group_by(Resource) %>%
  mutate(proportion = n / sum(n))

opd_frequencies

# A tibble: 7,210 × 4
# Groups:   Resource [10]
   Resource                                               word      n proportion
   <chr>                                                  <chr> <int>      <dbl>
 1 Online Learning Module (e.g. Call for Change, Underst… info…  1782     0.0238
 2 Online Learning Module (e.g. Call for Change, Underst… lear…  1445     0.0193
 3 Online Learning Module (e.g. Call for Change, Underst… vide…  1336     0.0179
 4 Online Learning Module (e.g. Call for Change, Underst… reso…  1209     0.0162
 5 Online Learning Module (e.g. Call for Change, Underst… onli…  1082     0.0145
 6 Online Learning Module (e.g. Call for Change, Underst… unde…  1053     0.0141
 7 Online Learning Module (e.g. Call for Change, Underst… time   1036     0.0139
 8 Online Learning Module (e.g. Call for Change, Underst… exam…  1025     0.0137
 9 Online Learning Module (e.g. Call for Change, Underst… stud…   951     0.0127
10 Online Learning Module (e.g. Call for Change, Underst… data    915     0.0122
# ℹ 7,200 more rows
…
Now let’s append the total column from total_words to our opd_words data frame:

opd_totals <- left_join(opd_words, total_words)

Joining with `by = join_by(Resource)`

opd_totals

# A tibble: 8,833 × 4
   Resource                                                   word      n  total
   <chr>                                                      <chr> <int>  <int>
 1 Online Learning Module (e.g. Call for Change, Understandi… the   13058 181197
 2 Online Learning Module (e.g. Call for Change, Understandi… to     7933 181197
 3 Online Learning Module (e.g. Call for Change, Understandi… of     6132 181197
 4 Online Learning Module (e.g. Call for Change, Understandi… and    5560 181197
 5 Online Learning Module (e.g. Call for Change, Understandi… i      3861 181197
 6 Online Learning Module (e.g. Call for Change, Understandi… it     3087 181197
 7 Online Learning Module (e.g. Call for Change, Understandi… my     2649 181197
 8 Online Learning Module (e.g. Call for Change, Understandi… was    2520 181197
 9 Online Learning Module (e.g. Call for Change, Understandi… a      2473 181197
10 Online Learning Module (e.g. Call for Change, Understandi… in     2378 181197
# ℹ 8,823 more rows

Finally, we’re ready to use the bind_tf_idf() function to calculate a tf-idf statistic for each word and assess it’s relative importance to a given online resource type:

opd_tf_idf <- opd_totals %>%
  bind_tf_idf(word, Resource, n)

opd_tf_idf

# A tibble: 8,833 × 7
   Resource                              word      n  total     tf   idf  tf_idf
   <chr>                                 <chr> <int>  <int>  <dbl> <dbl>   <dbl>
 1 Online Learning Module (e.g. Call fo… the   13058 181197 0.0721 0     0      
 2 Online Learning Module (e.g. Call fo… to     7933 181197 0.0438 0     0      
 3 Online Learning Module (e.g. Call fo… of     6132 181197 0.0338 0     0      
 4 Online Learning Module (e.g. Call fo… and    5560 181197 0.0307 0.105 0.00323
 5 Online Learning Module (e.g. Call fo… i      3861 181197 0.0213 0     0      
 6 Online Learning Module (e.g. Call fo… it     3087 181197 0.0170 0     0      
 7 Online Learning Module (e.g. Call fo… my     2649 181197 0.0146 0     0      
 8 Online Learning Module (e.g. Call fo… was    2520 181197 0.0139 0     0      
 9 Online Learning Module (e.g. Call fo… a      2473 181197 0.0136 0     0      
10 Online Learning Module (e.g. Call fo… in     2378 181197 0.0131 0.105 0.00138
# ℹ 8,823 more rows
…
