…
Remove Stop Words
========================================================


```r
opd_clean <- anti_join(opd_tidy, stop_words)

view(opd_clean)

stop_words
```

```
# A tibble: 1,149 x 2
   word        lexicon
   <chr>       <chr>  
 1 a           SMART  
 2 a's         SMART  
 3 able        SMART  
 4 about       SMART  
 5 above       SMART  
 6 according   SMART  
 7 accordingly SMART  
 8 across      SMART  
 9 actually    SMART  
10 after       SMART  
# … with 1,139 more rows
```
…
Word Counts
========================================================


```r
opd_counts <- count(opd_clean, word, sort = TRUE)

opd_counts
```

```
# A tibble: 5,352 x 2
   word              n
   <chr>         <int>
 1 information    1885
 2 learning       1520
 3 videos         1385
 4 resources      1286
 5 online         1139
 6 examples       1105
 7 understanding  1092
 8 time           1082
 9 students       1013
10 data            971
# … with 5,342 more rows
```
…
