Lab 4: Topic Modeling in MOOC-Eds
…
Removing unnecessary characters, punctuation, and whitespace

Converting all text to lowercase

Removing stop words such as “the”, “of”, and “to”

Let’s tokenize our forum text and by using the familiar unnest_tokens() and remove stop words:

forums_tidy <- ts_forum_data %>%
  unnest_tokens(output = word, input = post_content) %>%
  anti_join(stop_words, by = "word")

forums_tidy

# A tibble: 192,160 × 14
   course_id course_name       forum_id forum_name discussion_id discussion_name
   <chr>     <chr>             <chr>    <chr>      <chr>         <chr>          
 1 9         Teaching Statist… 126      Investiga… 6822          Not much compa…
 2 9         Teaching Statist… 126      Investiga… 6822          Not much compa…
 3 9         Teaching Statist… 126      Investiga… 6822          Not much compa…
 4 9         Teaching Statist… 126      Investiga… 6822          Not much compa…
 5 9         Teaching Statist… 126      Investiga… 6822          Not much compa…
 6 9         Teaching Statist… 126      Investiga… 6822          Not much compa…
 7 9         Teaching Statist… 126      Investiga… 6822          Not much compa…
 8 9         Teaching Statist… 126      Investiga… 6822          Not much compa…
 9 9         Teaching Statist… 126      Investiga… 6822          Not much compa…
10 9         Teaching Statist… 126      Investiga… 6822          Not much compa…
# ℹ 192,150 more rows
# ℹ 8 more variables: discussion_creator <dbl>, discussion_poster <dbl>,
#   discussion_reference <chr>, parent_id <dbl>, post_date <chr>,
#   post_id <chr>, post_title <chr>, word <chr>

Now let’s do a quick word count to see some of the most common words used throughout the forums. This should get a sense of what we’re working with and later we’ll need these word counts for creating our document term matrix for topic modeling:

forums_tidy %>%
  count(word, sort = TRUE)

# A tibble: 13,620 × 2
   word           n
   <chr>      <int>
 1 students    6841
 2 data        4365
 3 statistics  3103
 4 school      1488
 5 questions   1470
 6 class       1426
 7 font        1311
 8 span        1267
 9 time        1253
10 style       1150
# ℹ 13,610 more rows
…
Despite their frequent use in topic modeling, we find that stemmers produce no meaningful improvement in likelihood and coherence and in fact can degrade topic stability.

For now, we will leave as is the forums_dtm we created earlier with words unstemmed, but what if we wanted to stem words in a “tidy” way?

Since the unnest_tokens() function does not (intentionally I believe) include a stemming function, one approach would be to use the wordStem() function from the snowballC package to either replace our words column with a word stems or create a new variable called stem with our stemmed words. Let’s do the latter and take a look at the original words and the stem that was produced:

stemmed_forums <- ts_forum_data %>%
  unnest_tokens(output = word, input = post_content) %>%
  anti_join(stop_words, by = "word") %>%
  mutate(stem = wordStem(word))

stemmed_forums

# A tibble: 192,160 × 15
   course_id course_name       forum_id forum_name discussion_id discussion_name
   <chr>     <chr>             <chr>    <chr>      <chr>         <chr>          
 1 9         Teaching Statist… 126      Investiga… 6822          Not much compa…
 2 9         Teaching Statist… 126      Investiga… 6822          Not much compa…
 3 9         Teaching Statist… 126      Investiga… 6822          Not much compa…
 4 9         Teaching Statist… 126      Investiga… 6822          Not much compa…
 5 9         Teaching Statist… 126      Investiga… 6822          Not much compa…
 6 9         Teaching Statist… 126      Investiga… 6822          Not much compa…
 7 9         Teaching Statist… 126      Investiga… 6822          Not much compa…
 8 9         Teaching Statist… 126      Investiga… 6822          Not much compa…
 9 9         Teaching Statist… 126      Investiga… 6822          Not much compa…
10 9         Teaching Statist… 126      Investiga… 6822          Not much compa…
# ℹ 192,150 more rows
# ℹ 9 more variables: discussion_creator <dbl>, discussion_poster <dbl>,
#   discussion_reference <chr>, parent_id <dbl>, post_date <chr>,
#   post_id <chr>, post_title <chr>, word <chr>, stem <chr>
…
Did stemming words significantly reduce the sparsity of the network?

Hint: Make sure your code includes stem counts rather than word counts.

stemmed_dtm <- ts_forum_data %>%
  unnest_tokens(output = word, input = post_content) %>%
  anti_join(stop_words, by = "word") %>%
  mutate(stem = wordStem(word)) %>%
  ______() %>%
  ______() %>%
  
stemmed_dtm

# A tibble: 10,001 × 2
   stem         n
   <chr>    <int>
 1 student   7354
 2 data      4365
 3 statist   4161
 4 question  2470
 5 teach     1858
 6 class     1738
 7 school    1606
 8 time      1457
 9 learn     1372
10 font      1311
# ℹ 9,991 more rows
…
Even though we’ve somewhat arbitrarily selected the number of topics for our corpus, some these topics or themes are fairly intuitive to interpret. For example:

Topic 11 (technology, students, software, program, excel) seems to be about students use of technology including software programs like excel;

Topic 9 (questions, kids, love, gapminder, sharing) seems to be about the gapminder activity from the MOOC-Ed and kids enjoyment of it; and

Topic 18 (data, students, collect, real, sets) seems to be about student collection and use of real world data sets.

Not surprisingly, the tidytext package has a handy function conveniently name tidy() to convert our lda model to a tidy data frame containing these beta values for each term:

tidy_lda <- tidy(forums_lda)

tidy_lda

# A tibble: 272,400 × 3
   topic term       beta
   <int> <chr>     <dbl>
 1     1 2015  8.35e-281
 2     2 2015  1.06e-  3
 3     3 2015  7.92e- 45
 4     4 2015  5.72e- 67
 5     5 2015  3.00e- 31
 6     6 2015  5.38e- 36
 7     7 2015  4.06e- 34
 8     8 2015  1.02e- 33
 9     9 2015  1.10e-  4
10    10 2015  6.74e-  5
# ℹ 272,390 more rows
…
Now that we have a sense of the most common words associated with each topic, let’s take a look at the topic prevalence in our MOOC-Ed discussion forum corpus, including the words that contribute to each topic we examined above.

Also, hidden within our forums_lda topic model object we created are per-document-per-topic probabilities, called γ (“gamma”). This provides the probabilities that each document is generated from each topic, that gamma matrix. We can combine our beta and gamma values to understand the topic prevalence in our corpus, and which words contribute to each topic.

To do this, we’re going to borrow some code from the Silge (2018) post, Training, evaluating, and interpreting topic models.

First, let’s create two tidy data frames for our beta and gamma values

td_beta <- tidy(forums_lda)

td_gamma <- tidy(forums_lda, matrix = "gamma")

td_beta

# A tibble: 272,400 × 3
   topic term       beta
   <int> <chr>     <dbl>
 1     1 2015  8.35e-281
 2     2 2015  1.06e-  3
 3     3 2015  7.92e- 45
 4     4 2015  5.72e- 67
 5     5 2015  3.00e- 31
 6     6 2015  5.38e- 36
 7     7 2015  4.06e- 34
 8     8 2015  1.02e- 33
 9     9 2015  1.10e-  4
10    10 2015  6.74e-  5
# ℹ 272,390 more rows

td_gamma

# A tibble: 115,320 × 3
   document topic    gamma
   <chr>    <int>    <dbl>
 1 11295        1 0.00192 
 2 12711        1 0.000243
 3 12725        1 0.0259  
 4 12733        1 0.00224 
 5 12743        1 0.00761 
 6 12744        1 0.00383 
 7 12756        1 0.0259  
 8 12757        1 0.00282 
 9 12775        1 0.00282 
10 12816        1 0.00282 
# ℹ 115,310 more rows
…
