Topic Modeling in MOOC-Eds
…
By default, many of the columns like course_id and forum_id are read in as numeric data. For our purposes, we plan to treat them as unique identifiers or names for out courses, forums, discussions, and posts. The read_csv() function has a handy col_types = argument changing the column types from numeric to characters.

👉 Your Turn ⤵

Use the code chunk below to inspect the data frame you just imported using a function of your choosing and answer the questions that follow:

ts_forum_data

# A tibble: 5,788 × 14
   course_id course_name       forum_id forum_name discussion_id discussion_name
   <chr>     <chr>             <chr>    <chr>      <chr>         <chr>          
 1 9         Teaching Statist… 126      Investiga… 6822          Not much compa…
 2 9         Teaching Statist… 126      Investiga… 6822          Not much compa…
 3 9         Teaching Statist… 126      Investiga… 6822          Not much compa…
 4 9         Teaching Statist… 126      Investiga… 6822          Not much compa…
 5 9         Teaching Statist… 126      Investiga… 6822          Not much compa…
 6 9         Teaching Statist… 126      Investiga… 6822          Not much compa…
 7 9         Teaching Statist… 126      Investiga… 6822          Not much compa…
 8 9         Teaching Statist… 126      Investiga… 6822          Not much compa…
 9 9         Teaching Statist… 126      Investiga… 6822          Not much compa…
10 9         Teaching Statist… 126      Investiga… 6822          Not much compa…
# ℹ 5,778 more rows
# ℹ 8 more variables: discussion_creator <dbl>, discussion_poster <dbl>,
#   discussion_reference <chr>, parent_id <dbl>, post_date <chr>,
#   post_id <chr>, post_title <chr>, post_content <chr>
…
Removing unnecessary characters, punctuation, and whitespace

Converting all text to lowercase

Removing stop words such as “the”, “of”, and “to”

Let’s tokenize our forum text and by using the familiar unnest_tokens() and remove stop words per usual:

forums_tidy <- ts_forum_data |>
  unnest_tokens(output = word, input = post_content) |>
  anti_join(stop_words, by = "word")

forums_tidy

# A tibble: 192,159 × 14
   course_id course_name       forum_id forum_name discussion_id discussion_name
   <chr>     <chr>             <chr>    <chr>      <chr>         <chr>          
 1 9         Teaching Statist… 126      Investiga… 6822          Not much compa…
 2 9         Teaching Statist… 126      Investiga… 6822          Not much compa…
 3 9         Teaching Statist… 126      Investiga… 6822          Not much compa…
 4 9         Teaching Statist… 126      Investiga… 6822          Not much compa…
 5 9         Teaching Statist… 126      Investiga… 6822          Not much compa…
 6 9         Teaching Statist… 126      Investiga… 6822          Not much compa…
 7 9         Teaching Statist… 126      Investiga… 6822          Not much compa…
 8 9         Teaching Statist… 126      Investiga… 6822          Not much compa…
 9 9         Teaching Statist… 126      Investiga… 6822          Not much compa…
10 9         Teaching Statist… 126      Investiga… 6822          Not much compa…
# ℹ 192,149 more rows
# ℹ 8 more variables: discussion_creator <dbl>, discussion_poster <dbl>,
#   discussion_reference <chr>, parent_id <dbl>, post_date <chr>,
#   post_id <chr>, post_title <chr>, word <chr>

Now let’s do a quick word count to see some of the most common words used throughout the forums. This should get a sense of what we’re working with and later we’ll need these word counts for creating our document term matrix for topic modeling:

forums_tidy |>
  count(word, sort = TRUE)

# A tibble: 13,620 × 2
   word           n
   <chr>      <int>
 1 students    6841
 2 data        4365
 3 statistics  3103
 4 school      1488
 5 questions   1470
 6 class       1426
 7 font        1311
 8 span        1267
 9 time        1253
10 style       1150
# ℹ 13,610 more rows
…
As highlighted in Chapter 5 of Text Mining with R, the {topicmodels} package and the Latent Dirichlet allocation (LDA) algorithm and LDA() function it uses expects document-term matrix as the data input.

Before we create a our document-term matrix, however, we have an important decision to make:

What do we consider to be a “document” in a MOOC-Ed discussion forum?

For example, we could consider each individual discussion post, or post_id in our data frame, as a document. It might also make sense to combine texts from all posts within each discussion, or disccussion_id, and consider that as our “document” since these posts are often interconnected an build off one another. For now, however, let treat each individual post as a unique document.

To create our document term matrix, we’ll need to first count() how many times each word occurs in each document, or post_id in our case, like so:

forums_tidy |>
  count(post_id, word) |>
  arrange(desc(n))

# A tibble: 142,641 × 3
   post_id word       n
   <chr>   <chr>  <int>
 1 20198   0        226
 2 50804   td       196
 3 20198   style    184
 4 34853   td       150
 5 20198   border   145
 6 20198   span     128
 7 20198   0px      126
 8 20198   color    125
 9 20198   rgb      124
10 20198   153      118
# ℹ 142,631 more rows
…
For now, we will leave as is the forums_dtm we created earlier with words unstemmed, but what if we wanted to stem words in a “tidy” way?

Since the unnest_tokens() function does not (intentionally I believe) include a stemming function, one approach would be to use the wordStem() function from the snowballC package to either replace our words column with a word stems or create a new variable called stem with our stemmed words using the mutate() function.

Let’s do the latter and take a look at the original words and the stem that was produced:

stemmed_forums <- ts_forum_data |>
  unnest_tokens(output = word, input = post_content) |>
  anti_join(stop_words, by = "word") |>
  mutate(stem = wordStem(word))

stemmed_forums

# A tibble: 192,159 × 15
   course_id course_name       forum_id forum_name discussion_id discussion_name
   <chr>     <chr>             <chr>    <chr>      <chr>         <chr>          
 1 9         Teaching Statist… 126      Investiga… 6822          Not much compa…
 2 9         Teaching Statist… 126      Investiga… 6822          Not much compa…
 3 9         Teaching Statist… 126      Investiga… 6822          Not much compa…
 4 9         Teaching Statist… 126      Investiga… 6822          Not much compa…
 5 9         Teaching Statist… 126      Investiga… 6822          Not much compa…
 6 9         Teaching Statist… 126      Investiga… 6822          Not much compa…
 7 9         Teaching Statist… 126      Investiga… 6822          Not much compa…
 8 9         Teaching Statist… 126      Investiga… 6822          Not much compa…
 9 9         Teaching Statist… 126      Investiga… 6822          Not much compa…
10 9         Teaching Statist… 126      Investiga… 6822          Not much compa…
# ℹ 192,149 more rows
# ℹ 9 more variables: discussion_creator <dbl>, discussion_poster <dbl>,
#   discussion_reference <chr>, parent_id <dbl>, post_date <chr>,
#   post_id <chr>, post_title <chr>, word <chr>, stem <chr>
…
stemmed_dtm

<<DocumentTermMatrix (documents: 5766, terms: 10001)>>
Non-/sparse entries: 136185/57529581
Sparsity           : 100%
Maximal term length: NA
Weighting          : term frequency (tf)

<<DocumentTermMatrix (documents: 5766, terms: 13620)>>
Non-/sparse entries: 142641/78390279
Sparsity           : 100%
Maximal term length: NA
Weighting          : term frequency (tf)

# A tibble: 10,001 × 2
   stem         n
   <chr>    <int>
 1 student   7354
 2 data      4365
 3 statist   4161
 4 question  2470
 5 teach     1858
 6 class     1738
 7 school    1606
 8 time      1457
 9 learn     1372
10 font      1311
# ℹ 9,991 more rows
…
Even though we’ve somewhat arbitrarily selected the number of topics for our corpus, some these topics or themes are fairly intuitive to interpret. For example:

Topic 11 (technology, students, software, program, excel) seems to be about students use of technology including software programs like excel;

Topic 9 (questions, kids, love, gapminder, sharing) seems to be about the gapminder activity from the MOOC-Ed and kids enjoyment of it; and

Topic 18 (data, students, collect, real, sets) seems to be about student collection and use of real world data sets.

Not surprisingly, the tidytext package has a handy function conveniently name tidy() to convert our LDA model to a tidy data frame containing these beta values for each term:

tidy_lda <- tidy(forums_lda)

tidy_lda

# A tibble: 272,400 × 3
   topic term       beta
   <int> <chr>     <dbl>
 1     1 2015  4.61e-267
 2     2 2015  1.05e-  3
 3     3 2015  4.93e- 42
 4     4 2015  1.20e- 63
 5     5 2015  2.55e- 30
 6     6 2015  7.84e- 35
 7     7 2015  8.17e- 33
 8     8 2015  6.25e- 33
 9     9 2015  1.10e-  4
10    10 2015  6.75e-  5
# ℹ 272,390 more rows
…
Now that we have a sense of the most common words associated with each topic, let’s take a look at the topic prevalence in our MOOC-Ed discussion forum corpus, including the words that contribute to each topic we examined above.

Also, hidden within our forums_lda topic model object we created are per-document-per-topic probabilities, called γ (“gamma”). This provides the probabilities that each document is generated from each topic, that gamma matrix. We can combine our beta and gamma values to understand the topic prevalence in our corpus, and which words contribute to each topic.

To do this, we’re going to again borrow some code from the Silge (2018) post, Training, evaluating, and interpreting topic models.

First, let’s create two tidy data frames for our beta and gamma values

td_beta <- tidy(forums_lda)

td_gamma <- tidy(forums_lda, matrix = "gamma")

td_beta

# A tibble: 272,400 × 3
   topic term       beta
   <int> <chr>     <dbl>
 1     1 2015  4.61e-267
 2     2 2015  1.05e-  3
 3     3 2015  4.93e- 42
 4     4 2015  1.20e- 63
 5     5 2015  2.55e- 30
 6     6 2015  7.84e- 35
 7     7 2015  8.17e- 33
 8     8 2015  6.25e- 33
 9     9 2015  1.10e-  4
10    10 2015  6.75e-  5
# ℹ 272,390 more rows

td_gamma

# A tibble: 115,320 × 3
   document topic    gamma
   <chr>    <int>    <dbl>
 1 11295        1 0.00196 
 2 12711        1 0.000248
 3 12725        1 0.0262  
 4 12733        1 0.00229 
 5 12743        1 0.00777 
 6 12744        1 0.00391 
 7 12756        1 0.0262  
 8 12757        1 0.00289 
 9 12775        1 0.00289 
10 12816        1 0.00289 
# ℹ 115,310 more rows
…
