…
#### Tokenize Text {data-link="2b. Tidy Text"}

In [Chapter 1 of Text Mining with R](https://www.tidytextmining.com/tidytext.html), Silge and Robinson (2018) define the tidy text format as a table with one-token-per-row. A **token** is a meaningful unit of text, such as a word, two-word phrase (bigram), or sentence that we are interested in using for analysis. And **tokenization** is the process of splitting text into tokens.

This one-token-per-row structure is in contrast to the ways text is often stored for text analysis, perhaps as strings in a corpus object or in a document-term matrix. For tidy text mining, the token that is stored in each row is most often a single word, but can also be an n-gram, sentence, or paragraph.

For this part of our workflow, our goal is to transform our `ccss_tweets` data from this:


```
## # A tibble: 11,592 x 4
##    text                              id         author_id    created_at         
##    <chr>                             <chr>      <chr>        <dttm>             
##  1 "Textual Evidence in #GatheringB… 108537318… 93237206838… 2019-01-16 03:08:27
##  2 "11 PM ET Thursday live 805-285-… 108533640… 38784416     2019-01-16 00:42:18
##  3 "11 PM ET Thursday live 805-285-… 108533633… 85409136     2019-01-16 00:42:00
##  4 "Petrilli /Forham were the ones … 108532985… 253343991    2019-01-16 00:16:16
##  5 "This is rich.\nLet's look at th… 108532928… 253343991    2019-01-16 00:14:00
##  6 "This new math will always leave… 108532139… 25189615     2019-01-15 23:42:39
##  7 "Our free #lesson gives a sample… 108528177… 91497123610… 2019-01-15 21:05:13
##  8 "With a focus on the complete wr… 108528172… 281718510    2019-01-15 21:05:00
##  9 "Super excited to learn from @ju… 108526899… 395853723    2019-01-15 20:14:25
## 10 "Find ideas for how to teach &am… 108526204… 99865113846… 2019-01-15 19:46:48
## # … with 11,582 more rows
```

Into a "tidy text" format that looks more like this familiar tibble data structure:


```
## Using `to_lower = TRUE` with `token = 'tweets'` may not preserve URLs.
```


```
## # A tibble: 169,711 x 4
##    id                  author_id         created_at          word               
##    <chr>               <chr>             <dttm>              <chr>              
##  1 1085373185263128576 9323720683808808… 2019-01-16 03:08:27 textual            
##  2 1085373185263128576 9323720683808808… 2019-01-16 03:08:27 evidence           
##  3 1085373185263128576 9323720683808808… 2019-01-16 03:08:27 #gatheringblue     
##  4 1085373185263128576 9323720683808808… 2019-01-16 03:08:27 #ccss              
##  5 1085373185263128576 9323720683808808… 2019-01-16 03:08:27 #rl71              
##  6 1085373185263128576 9323720683808808… 2019-01-16 03:08:27 #rl72              
##  7 1085373185263128576 9323720683808808… 2019-01-16 03:08:27 #w72               
##  8 1085373185263128576 9323720683808808… 2019-01-16 03:08:27 #middleschool      
##  9 1085373185263128576 9323720683808808… 2019-01-16 03:08:27 #interactivenotebo…
## 10 1085373185263128576 9323720683808808… 2019-01-16 03:08:27 🍎📚📝✅💯❤️🚀     
## # … with 169,701 more rows
```
…
Your output should look something like this:


```
## Using `to_lower = TRUE` with `token = 'tweets'` may not preserve URLs.
```

```
## # A tibble: 289,390 x 4
##    id                  author_id         created_at          word               
##    <chr>               <chr>             <dttm>              <chr>              
##  1 1085373185263128576 9323720683808808… 2019-01-16 03:08:27 textual            
##  2 1085373185263128576 9323720683808808… 2019-01-16 03:08:27 evidence           
##  3 1085373185263128576 9323720683808808… 2019-01-16 03:08:27 in                 
##  4 1085373185263128576 9323720683808808… 2019-01-16 03:08:27 #gatheringblue     
##  5 1085373185263128576 9323720683808808… 2019-01-16 03:08:27 #ccss              
##  6 1085373185263128576 9323720683808808… 2019-01-16 03:08:27 #rl71              
##  7 1085373185263128576 9323720683808808… 2019-01-16 03:08:27 #rl72              
##  8 1085373185263128576 9323720683808808… 2019-01-16 03:08:27 #w72               
##  9 1085373185263128576 9323720683808808… 2019-01-16 03:08:27 #middleschool      
## 10 1085373185263128576 9323720683808808… 2019-01-16 03:08:27 #interactivenotebo…
## # … with 289,380 more rows
```
…
We do this by adding the `token = "ngrams"` option to [`unnest_tokens()`](https://rdrr.io/pkg/tidytext/man/unnest_tokens.html), and setting `n` to the number of words in each n-gram. Let's set `n` to 2, so we can examine pairs of two consecutive words, often called "bigrams":


```r
ccss_bigrams <- ccss_tweets %>% 
  unnest_tokens(bigram, 
                text, 
                token = "ngrams", 
                n = 2)

ccss_bigrams
```

```
## # A tibble: 301,118 x 4
##    id              author_id        created_at          bigram                  
##    <chr>           <chr>            <dttm>              <chr>                   
##  1 10853731852631… 932372068380880… 2019-01-16 03:08:27 textual evidence        
##  2 10853731852631… 932372068380880… 2019-01-16 03:08:27 evidence in             
##  3 10853731852631… 932372068380880… 2019-01-16 03:08:27 in gatheringblue        
##  4 10853731852631… 932372068380880… 2019-01-16 03:08:27 gatheringblue ccss      
##  5 10853731852631… 932372068380880… 2019-01-16 03:08:27 ccss rl71               
##  6 10853731852631… 932372068380880… 2019-01-16 03:08:27 rl71 rl72               
##  7 10853731852631… 932372068380880… 2019-01-16 03:08:27 rl72 w72                
##  8 10853731852631… 932372068380880… 2019-01-16 03:08:27 w72 middleschool        
##  9 10853731852631… 932372068380880… 2019-01-16 03:08:27 middleschool interactiv…
## 10 10853731852631… 932372068380880… 2019-01-16 03:08:27 interactivenotebook 2ks…
## # … with 301,108 more rows
```

\
Before we move any further let's take a quick look at the most common unigrams and bigrams in our two datasets:


```r
ccss_unigrams %>%
  count(word, sort = TRUE)
```

```
## # A tibble: 39,703 x 2
##    word            n
##    <chr>       <int>
##  1 #commoncore  9852
##  2 the          8508
##  3 to           6858
##  4 of           4821
##  5 and          4129
##  6 a            3686
##  7 is           3567
##  8 in           3224
##  9 for          3015
## 10 this         2415
## # … with 39,693 more rows
```

```r
ccss_bigrams %>% 
  count(bigram, sort = TRUE)
```

```
## # A tibble: 138,876 x 2
##    bigram                     n
##    <chr>                  <int>
##  1 https t.co             10538
##  2 commoncore https         940
##  3 common core              935
##  4 commoncore math          749
##  5 of the                   735
##  6 in the                   504
##  7 the commoncore           498
##  8 commoncore commonsense   497
##  9 of writing               492
## 10 say https                491
## # … with 138,866 more rows
```
…
For a good overview of the different `dplyr` joins see here: <https://medium.com/the-codehub/beginners-guide-to-using-joins-in-r-682fc9b1f119>

Now let's remove stop words that don't help us learn much about what people are saying about the state standards.


```r
tidy_unigrams <- anti_join(ccss_unigrams,
                         stop_words,
                         by = "word")

tidy_unigrams
```

```
## # A tibble: 169,711 x 4
##    id                  author_id         created_at          word               
##    <chr>               <chr>             <dttm>              <chr>              
##  1 1085373185263128576 9323720683808808… 2019-01-16 03:08:27 textual            
##  2 1085373185263128576 9323720683808808… 2019-01-16 03:08:27 evidence           
##  3 1085373185263128576 9323720683808808… 2019-01-16 03:08:27 #gatheringblue     
##  4 1085373185263128576 9323720683808808… 2019-01-16 03:08:27 #ccss              
##  5 1085373185263128576 9323720683808808… 2019-01-16 03:08:27 #rl71              
##  6 1085373185263128576 9323720683808808… 2019-01-16 03:08:27 #rl72              
##  7 1085373185263128576 9323720683808808… 2019-01-16 03:08:27 #w72               
##  8 1085373185263128576 9323720683808808… 2019-01-16 03:08:27 #middleschool      
##  9 1085373185263128576 9323720683808808… 2019-01-16 03:08:27 #interactivenotebo…
## 10 1085373185263128576 9323720683808808… 2019-01-16 03:08:27 🍎📚📝✅💯❤️🚀     
## # … with 169,701 more rows
```
…
\

#### Custom Stop Words

Before wrapping up, let's take a quick count of the most common unigrams and bigrams to see if the results are a little more meaningful:


```r
tidy_unigrams %>%
  count(word, sort = TRUE)
```

```
## # A tibble: 39,086 x 2
##    word            n
##    <chr>       <int>
##  1 #commoncore  9852
##  2 #ccss        1843
##  3 math         1750
##  4 amp          1520
##  5 #education   1064
##  6 students     1053
##  7 common       1011
##  8 core          987
##  9 education     850
## 10 standards     846
## # … with 39,076 more rows
```

```r
tidy_bigrams %>% 
  count(bigram, sort = TRUE)
```

```
## # A tibble: 63,513 x 2
##    bigram                     n
##    <chr>                  <int>
##  1 https t.co             10538
##  2 commoncore https         940
##  3 common core              935
##  4 commoncore math          749
##  5 commoncore commonsense   497
##  6 commonsense knowledge    488
##  7 compact style            488
##  8 power site:is            488
##  9 writing common           488
## 10 t.co sxw9rhgwzm          470
## # … with 63,503 more rows
```
…
\

\

### 3b. Graph Pairs


```r
tidy_bigrams %>%
  count(bigram, sort = TRUE)
```

```
## # A tibble: 63,513 x 2
##    bigram                     n
##    <chr>                  <int>
##  1 https t.co             10538
##  2 commoncore https         940
##  3 common core              935
##  4 commoncore math          749
##  5 commoncore commonsense   497
##  6 commonsense knowledge    488
##  7 compact style            488
##  8 power site:is            488
##  9 writing common           488
## 10 t.co sxw9rhgwzm          470
## # … with 63,503 more rows
```
…
\


```r
word_cors <- math_unigrams %>%
  group_by(word) %>%
  filter(n() >= 20) %>%
  pairwise_cor(word, id, sort = TRUE)

word_cors %>%
  filter(item1 == "math")
```

```
## # A tibble: 331 x 3
##    item1 item2  correlation
##    <chr> <chr>        <dbl>
##  1 math  i           0.141 
##  2 math  they        0.116 
##  3 math  core        0.109 
##  4 math  is          0.104 
##  5 math  common      0.103 
##  6 math  must        0.0933
##  7 math  thats       0.0930
##  8 math  think       0.0918
##  9 math  do          0.0914
## 10 math  me          0.0897
## # … with 321 more rows
```
…
