Tidy Text, Tokens & Twitter
…
Lets go ahead and load tidytext:

library(tidytext)

Tokenize Text

In Chapter 1 of Text Mining with R, Silge and Robinson (2018) define the tidy text format as a table with one-token-per-row, and explain that:

A token is a meaningful unit of text, such as a word, two-word phrase (bigram), or sentence that we are interested in using for analysis. And tokenization is the process of splitting text into tokens.

This one-token-per-row structure is in contrast to the ways text is often stored for text analysis, perhaps as strings in a corpus object or in a document-term matrix. For tidy text mining, thetoken that is stored in each row is most often a single word, but can also be an n-gram, sentence, or paragraph.

For this part of our workflow, our goal is to transform our ss_tweets data from this:

## # A tibble: 312 x 4
##    standards text                                screen_name created_at         
##    <chr>     <chr>                               <chr>       <dttm>             
##  1 ngss      "LIVE!\nDesigning a Heat Transfer  pentacleth 2021-05-16 15:21:28
##  2 ngss      "SCIENCE PROFILES!\nEveryday I sha pentacleth 2021-05-14 17:10:25
##  3 ngss      "NYS 8th Grade Science Test Prep - EyoChem     2021-05-16 14:22:17
##  4 ngss      "NYS 4th Grade Science Test Prep - EyoChem     2021-05-16 14:55:59
##  5 ngss      "Are u getting your #Earth #Scienc E3Chemistry 2021-05-16 13:52:42
##  6 ngss      "Are u getting your #Biology #stud E3Chemistry 2021-05-16 13:50:25
##  7 ngss      "Are u getting your 8th-grade #stu E3Chemistry 2021-05-16 13:41:11
##  8 ngss      "Free Instant Practice of the Phys E3Chemistry 2021-05-09 15:01:41
##  9 ngss      "Grade 4 #Science #Test on Google  E3Chemistry 2021-05-13 15:19:23
## 10 ngss      "Free Instant Practice of the Livi E3Chemistry 2021-05-09 14:52:02
## #  with 302 more rows

Into a tidy text one-token-per-row format that looks like this:

## Using `to_lower = TRUE` with `token = 'tweets'` may not preserve URLs.

## # A tibble: 8,914 x 4
##    standards word                    screen_name  created_at         
##    <chr>     <chr>                   <chr>        <dttm>             
##  1 ngss      live                    pentaclethra 2021-05-16 15:21:28
##  2 ngss      designing               pentaclethra 2021-05-16 15:21:28
##  3 ngss      a                       pentaclethra 2021-05-16 15:21:28
##  4 ngss      heat                    pentaclethra 2021-05-16 15:21:28
##  5 ngss      transfer                pentaclethra 2021-05-16 15:21:28
##  6 ngss      experiment              pentaclethra 2021-05-16 15:21:28
##  7 ngss      right                   pentaclethra 2021-05-16 15:21:28
##  8 ngss      now                     pentaclethra 2021-05-16 15:21:28
##  9 ngss      on                      pentaclethra 2021-05-16 15:21:28
## 10 ngss      https://t.co/4q0yqvyhad pentaclethra 2021-05-16 15:21:28
## #  with 8,904 more rows
…
Before we move any further lets take a quick look at the most common unigrams and bigrams in our two datasets:

ss_tweets_u2 %>%
  count(word, sort = TRUE)

## # A tibble: 3,034 x 2
##    word      n
##    <chr> <int>
##  1 the     262
##  2 to      202
##  3 and     200
##  4 #ngss   152
##  5 of      148
##  6 a       124
##  7 in      117
##  8 for     115
##  9 this     84
## 10 on       83
## #  with 3,024 more rows

ss_tweets_b1 %>% 
  count(bigram, sort = TRUE)

## # A tibble: 7,076 x 2
##    bigram               n
##    <chr>            <int>
##  1 https t.co         335
##  2 ngss https          30
##  3 of the              27
##  4 in the              23
##  5 ngsschat https      18
##  6 the ngss            17
##  7 check out           15
##  8 to the              15
##  9 citsci scicomm      14
## 10 scicomm ngsschat    14
## #  with 7,066 more rows
…
ss_tweets_b3 <- ss_tweets_b2 %>%
  filter(!word1 %in% stop_words$word) %>%
  filter(!word2 %in% stop_words$word)

ss_tweets_b4 <- ss_tweets_b3 %>%
  unite(bigram, word1, word2, sep = " ")

Custom Stop Words

Before wrapping up, lets take a quick count of the most common unigrams and bigrams to see if the results are a little more meaningful:

ss_tweets_u3 %>%
  count(word, sort = TRUE)

## # A tibble: 2,705 x 2
##    word            n
##    <chr>       <int>
##  1 #ngss         152
##  2 science        77
##  3 #ngsschat      65
##  4 ngss           60
##  5 amp            55
##  6 students       50
##  7 #commoncore    31
##  8 learning       28
##  9 teachers       25
## 10 #science       24
## #  with 2,695 more rows

ss_tweets_b4 %>% 
  count(bigram, sort = TRUE)

## # A tibble: 2,820 x 2
##    bigram               n
##    <chr>            <int>
##  1 https t.co         335
##  2 ngss https          30
##  3 ngsschat https      18
##  4 citsci scicomm      14
##  5 scicomm ngsschat    14
##  6 ngss aligned        12
##  7 freshman citsci     11
##  8 google form         10
##  9 ngss standards      10
## 10 ngss ngsschat        9
## #  with 2,810 more rows
…
