Come to the Dark Side
…
AFINN assigns words with a score that runs between -5 and 5, with negative scores indicating negative sentiment and positive scores indicating positive sentiment. AFINN is very similar to the lexicon used in our guiding study by Rosenberg et al.(2021)

bing categorizes words in a binary fashion into positive and negative categories.

nrccategorizes words in a binary fashion (yes/no) into categories of positive, negative, anger, anticipation, disgust, fear, joy, sadness, surprise, and trust.

Note that if this is your first time using the AFINN and NRC lexicons and you are working in RStudio Desktop, youll be prompted to download both. Respond yes to the prompt by entering 1 and the NRC and AFINN lexicons will download. Youll only have to do this the first time you use the NRC lexicon.

Lets take a quick look at each of these lexicons using the get_sentiments() function and assign them to their respective names for later use:

afinn <- get_sentiments("afinn")

afinn

## # A tibble: 2,477 x 2
##    word       value
##    <chr>      <dbl>
##  1 abandon       -2
##  2 abandoned     -2
##  3 abandons      -2
##  4 abducted      -2
##  5 abduction     -2
##  6 abductions    -2
##  7 abhor         -3
##  8 abhorred      -3
##  9 abhorrent     -3
## 10 abhors        -3
## #  with 2,467 more rows

bing <- get_sentiments("bing")

bing

## # A tibble: 6,786 x 2
##    word        sentiment
##    <chr>       <chr>    
##  1 2-faces     negative 
##  2 abnormal    negative 
##  3 abolish     negative 
##  4 abominable  negative 
##  5 abominably  negative 
##  6 abominate   negative 
##  7 abomination negative 
##  8 abort       negative 
##  9 aborted     negative 
## 10 aborts      negative 
## #  with 6,776 more rows

nrc <- get_sentiments("nrc")

nrc

## # A tibble: 13,901 x 2
##    word        sentiment
##    <chr>       <chr>    
##  1 abacus      trust    
##  2 abandon     fear     
##  3 abandon     negative 
##  4 abandon     sadness  
##  5 abandoned   anger    
##  6 abandoned   fear     
##  7 abandoned   negative 
##  8 abandoned   sadness  
##  9 abandonment anger    
## 10 abandonment fear     
## #  with 13,891 more rows

And just out of curiosity, lets take a look at the loughran lexicon as well:

loughran <- get_sentiments("loughran")

loughran

## # A tibble: 4,150 x 2
##    word         sentiment
##    <chr>        <chr>    
##  1 abandon      negative 
##  2 abandoned    negative 
##  3 abandoning   negative 
##  4 abandonment  negative 
##  5 abandonments negative 
##  6 abandons     negative 
##  7 abdicated    negative 
##  8 abdicates    negative 
##  9 abdicating   negative 
## 10 abdication   negative 
## #  with 4,140 more rows
…
Join Sentiments

Weve reached the final step in our data wrangling process before we can begin exploring our data to address our research questions.

In the previous section, we usedanti_join()to remove stop words in our dataset. For sentiment analysis, were going use the inner_join() function to do something similar.

Unlike the anti_join() function that removes rows that contain words matching those in our stop words dictionary, inner_join() allows us to keep only the rows with words that match words in our sentiment lexicons, or dictionaries, along with the sentiment measure for that word from the sentiment lexicon.

Lets use inner_join() to combine our two tidy_tweets and afinn data frames, keeping only rows with matching data in the word column:

sentiment_afinn <- inner_join(ss_tidy_tweets, afinn, by = "word")

sentiment_afinn %>% select(word, value)

## # A tibble: 33,579 x 2
##    word     value
##    <chr>    <dbl>
##  1 agree        1
##  2 crap        -3
##  3 dump        -1
##  4 complain    -2
##  5 crap        -3
##  6 shit        -4
##  7 matter       1
##  8 stupid      -2
##  9 stupid      -2
## 10 wow          4
## #  with 33,569 more rows

Notice that each word in your sentiment_afinn data frame now contains a value ranging from -5 (very negative) to 5 (very positive).

Lets join and take a look at the our sentiments according to bing:

sentiment_bing <- inner_join(ss_tidy_tweets, bing, by = "word")

sentiment_bing  %>% select(word, sentiment)

## # A tibble: 35,259 x 2
##    word           sentiment
##    <chr>          <chr>    
##  1 crap           negative 
##  2 dump           negative 
##  3 unemployed     negative 
##  4 indoctrination negative 
##  5 complain       negative 
##  6 crap           negative 
##  7 shit           negative 
##  8 educated       positive 
##  9 stupid         negative 
## 10 stupid         negative 
## #  with 35,249 more rows

Your Turn 

What are three words in our our sentiments_afinn data frame are the most that are most negative? Positive?

Use the code chunk below to create a sentiment_nrc data frame and answer the following questions:

sentiment_nrc <- inner_join(ss_tidy_tweets, nrc, by = "word")

sentiment_nrc  %>% select(word, sentiment)

## # A tibble: 172,585 x 2
##    word  sentiment
##    <chr> <chr>    
##  1 core  positive 
##  2 sense positive 
##  3 agree positive 
##  4 core  positive 
##  5 crap  disgust  
##  6 crap  negative 
##  7 teach joy      
##  8 teach positive 
##  9 teach surprise 
## 10 teach trust    
## #  with 172,575 more rows
…
## # A tibble: 2 x 5
## # Groups:   standards [2]
##   lexicon standards negative positive sentiment
##   <chr>   <chr>        <int>    <int>     <int>
## 1 bing    ccss         18035     9935     -8100
## 2 bing    ngss          1716     5573      3857

There we go, now we can see that CCSS scores negative, while NGSS is overall positive. By quite a bit in fact!!

Were going to calculate a quick score using the afinn lexicon now, but first recall that AFINN provides a value from -5 to 5 for each:

sentiment_afinn %>% select(word, value)

## # A tibble: 33,579 x 2
##    word     value
##    <chr>    <dbl>
##  1 agree        1
##  2 crap        -3
##  3 dump        -1
##  4 complain    -2
##  5 crap        -3
##  6 shit        -4
##  7 matter       1
##  8 stupid      -2
##  9 stupid      -2
## 10 wow          4
## #  with 33,569 more rows
…
ccss_sample

## # A tibble: 500 x 8
##    text            created_at          author_id      id conversation_id source 
##    <chr>           <dttm>                  <dbl>   <dbl>           <dbl> <chr>  
##  1 "@ejoeyalb @de 2021-01-01 18:05:45   7.04e 6 1.35e18         1.35e18 Twitte
##  2 "Teacher admit 2021-02-27 20:25:40   1.26e18 1.37e18         1.37e18 Twitte
##  3 "@SeanPong_ @R 2021-01-21 06:31:50   1.30e18 1.35e18         1.35e18 Twitte
##  4 "@UpBeatSkelet 2021-04-10 00:27:19   1.24e18 1.38e18         1.38e18 Twitte
##  5 "@DippinDots6  2021-01-18 18:17:26   4.51e 8 1.35e18         1.35e18 Twitte
##  6 "Rick &amp; Bu 2021-04-03 12:04:39   1.94e 7 1.38e18         1.38e18 Twitte
##  7 "@Lancegooden  2021-03-21 17:02:18   7.65e 8 1.37e18         1.37e18 Twitte
##  8 "@omni2226 @Bu 2021-04-29 22:34:26   2.29e 9 1.39e18         1.39e18 Twitte
##  9 "@yuggy52 @Jor 2021-01-26 21:18:39   4.70e 8 1.35e18         1.35e18 Twitte
## 10 "@T_S_P_O_O_K_ 2021-01-19 01:30:03   6.01e 8 1.35e18         1.35e18 Twitte
## #  with 490 more rows, and 2 more variables: possibly_sensitive <lgl>,
## #   in_reply_to_user_id <dbl>
…
