rtweet & the Twitter API
…
# your code here 

Using the OR Operator

In Understanding public sentiment about educational reforms: The Next Generation Science Standards on Twitter, Rosenberg et al. (2020) accessed tweets and user information from the hashtag-based #NGSSchat online community, including all tweets that used the following phrases: ngss, next generation science standard/s, next gen science standard/s. Note that / indicates an additional phrase featuring the respective plural form.

Lets modify our query using the OR operator to also include ngss so it will return tweets containing either #NGSSchat or ngss and assign to ngss_or_tweets:

ngss_tweets_q2 <- search_tweets(q = "#NGSSchat OR ngss", 
                                n = 5000)

ngss_tweets_q2

## # A tibble: 889 x 90
##    user_id  status_id   created_at          screen_name  text            source 
##    <chr>    <chr>       <dttm>              <chr>        <chr>           <chr>  
##  1 22293234 1406719526 2021-06-20 21:04:05 dtcampbe     "Check out pas Twitte
##  2 22293234 1406226597 2021-06-19 12:25:21 dtcampbe     "Post-#NGSScha Twitte
##  3 22293234 1405835039 2021-06-18 10:29:27 dtcampbe     "Hey #NGSSchat Twitte
##  4 3184633 1406715015 2021-06-20 20:46:09 martin4scie "Thanks CASE f Twitte
##  5 3494790 1406713819 2021-06-20 20:41:24 freeler_ngss "  Twitte
##  6 3494790 1406713224 2021-06-20 20:39:02 freeler_ngss "  Twitte
##  7 3494790 1406713157 2021-06-20 20:38:46 freeler_ngss "@DecultureEpc Twitte
##  8 3494790 1404777684 2021-06-15 12:27:54 freeler_ngss "  Twitte
##  9 3494790 1404776592 2021-06-15 12:23:33 freeler_ngss "  Twitte
## 10 3494790 1404776204 2021-06-15 12:22:01 freeler_ngss ".@EricClapton Twitte
## #  with 879 more rows, and 84 more variables: display_text_width <dbl>,
## #   reply_to_status_id <chr>, reply_to_user_id <chr>,
## #   reply_to_screen_name <chr>, is_quote <lgl>, is_retweet <lgl>,
## #   favorite_count <int>, retweet_count <int>, quote_count <int>,
## #   reply_count <int>, hashtags <list>, symbols <list>, urls_url <list>,
## #   urls_t.co <list>, urls_expanded_url <list>, media_url <list>,
## #   media_t.co <list>, media_expanded_url <list>, media_type <list>,
## #   ext_media_url <list>, ext_media_t.co <list>, ext_media_expanded_url <list>,
## #   ext_media_type <chr>, mentions_user_id <list>, mentions_screen_name <list>,
…
